Summarizing Penguins
…
df |>
  mutate(new_column_name = what_it_contains)

For example, if I had a data frame df with columns A and B, I can add a new column C that is the sum of A and B as follows (note: you can also use sum(A,B) here instead of A + B):

df |>
  mutate(C = A + B)

For example, we can convert body mass to kilograms:

penguins |>
  mutate(body_mass_kg = body_mass_g / 1000)

# A tibble: 344 × 9
   species island    bill_length_mm bill_depth_mm flipper_length_mm body_mass_g
   <fct>   <fct>              <dbl>         <dbl>             <int>       <int>
 1 Adelie  Torgersen           39.1          18.7               181        3750
 2 Adelie  Torgersen           39.5          17.4               186        3800
 3 Adelie  Torgersen           40.3          18                 195        3250
 4 Adelie  Torgersen           NA            NA                  NA          NA
 5 Adelie  Torgersen           36.7          19.3               193        3450
 6 Adelie  Torgersen           39.3          20.6               190        3650
 7 Adelie  Torgersen           38.9          17.8               181        3625
 8 Adelie  Torgersen           39.2          19.6               195        4675
 9 Adelie  Torgersen           34.1          18.1               193        3475
10 Adelie  Torgersen           42            20.2               190        4250
# ℹ 334 more rows
# ℹ 3 more variables: sex <fct>, year <int>, body_mass_kg <dbl>

Notice that for some variables we have NA listed for missing values. We can use drop_na() to remove the missing values from those variables

penguins |> 
  drop_na() #if we leave it blank it will remove any row with an NA

# A tibble: 333 × 8
   species island    bill_length_mm bill_depth_mm flipper_length_mm body_mass_g
   <fct>   <fct>              <dbl>         <dbl>             <int>       <int>
 1 Adelie  Torgersen           39.1          18.7               181        3750
 2 Adelie  Torgersen           39.5          17.4               186        3800
 3 Adelie  Torgersen           40.3          18                 195        3250
 4 Adelie  Torgersen           36.7          19.3               193        3450
 5 Adelie  Torgersen           39.3          20.6               190        3650
 6 Adelie  Torgersen           38.9          17.8               181        3625
 7 Adelie  Torgersen           39.2          19.6               195        4675
 8 Adelie  Torgersen           41.1          17.6               182        3200
 9 Adelie  Torgersen           38.6          21.2               191        3800
10 Adelie  Torgersen           34.6          21.1               198        4400
# ℹ 323 more rows
# ℹ 2 more variables: sex <fct>, year <int>

penguins |> 
  drop_na(sex) #adding a variable, removes rows with NA just for that variable

# A tibble: 333 × 8
   species island    bill_length_mm bill_depth_mm flipper_length_mm body_mass_g
   <fct>   <fct>              <dbl>         <dbl>             <int>       <int>
 1 Adelie  Torgersen           39.1          18.7               181        3750
 2 Adelie  Torgersen           39.5          17.4               186        3800
 3 Adelie  Torgersen           40.3          18                 195        3250
 4 Adelie  Torgersen           36.7          19.3               193        3450
 5 Adelie  Torgersen           39.3          20.6               190        3650
 6 Adelie  Torgersen           38.9          17.8               181        3625
 7 Adelie  Torgersen           39.2          19.6               195        4675
 8 Adelie  Torgersen           41.1          17.6               182        3200
 9 Adelie  Torgersen           38.6          21.2               191        3800
10 Adelie  Torgersen           34.6          21.1               198        4400
# ℹ 323 more rows
# ℹ 2 more variables: sex <fct>, year <int>
…
Add three new columns to penguins within one mutate() function: one column that contains the bill ratio (bill length / bill depth), one that contains the body mass converted to kg, and one that contains the flipper length converted to meters.

penguins |>
  mutate(bill_ratio = (bill_length_mm/bill_depth_mm),
         body_mass_kg = (body_mass_g/1000),
         flipper_length_m = (flipper_length_mm/1000))

# A tibble: 344 × 11
   species island    bill_length_mm bill_depth_mm flipper_length_mm body_mass_g
   <fct>   <fct>              <dbl>         <dbl>             <int>       <int>
 1 Adelie  Torgersen           39.1          18.7               181        3750
 2 Adelie  Torgersen           39.5          17.4               186        3800
 3 Adelie  Torgersen           40.3          18                 195        3250
 4 Adelie  Torgersen           NA            NA                  NA          NA
 5 Adelie  Torgersen           36.7          19.3               193        3450
 6 Adelie  Torgersen           39.3          20.6               190        3650
 7 Adelie  Torgersen           38.9          17.8               181        3625
 8 Adelie  Torgersen           39.2          19.6               195        4675
 9 Adelie  Torgersen           34.1          18.1               193        3475
10 Adelie  Torgersen           42            20.2               190        4250
# ℹ 334 more rows
# ℹ 5 more variables: sex <fct>, year <int>, bill_ratio <dbl>,
#   body_mass_kg <dbl>, flipper_length_m <dbl>
…
“large” if body mass is greater than 4500 g

“medium” if body mass is greater than 3000 g, and less than or equal to 4500 g

“small” if body mass is less than or equal to 3000 g

penguins |>
  mutate(size_bin = case_when(
      body_mass_g > 4500 ~ "large",
      body_mass_g > 3000 & body_mass_g <= 4500 ~ "medium",
      body_mass_g <= 3000 ~ "small"
    )
  )

# A tibble: 344 × 10
   species island    bill_length_mm bill_depth_mm flipper_length_mm body_mass_g
   <fct>   <fct>              <dbl>         <dbl>             <int>       <int>
 1 Adelie  Torgersen           39.1          18.7               181        3750
 2 Adelie  Torgersen           39.5          17.4               186        3800
 3 Adelie  Torgersen           40.3          18                 195        3250
 4 Adelie  Torgersen           NA            NA                  NA          NA
 5 Adelie  Torgersen           36.7          19.3               193        3450
 6 Adelie  Torgersen           39.3          20.6               190        3650
 7 Adelie  Torgersen           38.9          17.8               181        3625
 8 Adelie  Torgersen           39.2          19.6               195        4675
 9 Adelie  Torgersen           34.1          18.1               193        3475
10 Adelie  Torgersen           42            20.2               190        4250
# ℹ 334 more rows
# ℹ 4 more variables: sex <fct>, year <int>, bill_ratio <dbl>, size_bin <chr>
Practice with case_when()

Identify what is going on in this code:

penguins |>
  select(species, year, flipper_length_mm) |>  #selects the necessary columns
  rename(study_year = year) |>   #renames study_year column
  filter(species == "Adelie") |>  #selects only rows where species is Adelie
  mutate(flipper_rank = case_when(   #adds new column, begins case statement
    flipper_length_mm < 200 ~ 1,   #sets value to 1 if flipper_length_mm < 200
    flipper_length_mm >= 200 ~ 2,  #sets value to 2 if flipper_length_mm >= 200
    TRUE ~ 0 # 0 for anything else
  ))

# A tibble: 152 × 4
   species study_year flipper_length_mm flipper_rank
   <fct>        <int>             <int>        <dbl>
 1 Adelie        2007               181            1
 2 Adelie        2007               186            1
 3 Adelie        2007               195            1
 4 Adelie        2007                NA            0
 5 Adelie        2007               193            1
 6 Adelie        2007               190            1
 7 Adelie        2007               181            1
 8 Adelie        2007               195            1
 9 Adelie        2007               193            1
10 Adelie        2007               190            1
# ℹ 142 more rows
…
“Year 1” if the year is 2007

“Year 2” if the year is 2008

“Year 3” if the year is 2009

penguins %>% 
  mutate(study_year = case_when(
    year == "2007" ~ "Year 1",
    year == "2008" ~ "Year 2",
    year == "2009" ~ "Year 3"
  ))

# A tibble: 344 × 10
   species island    bill_length_mm bill_depth_mm flipper_length_mm body_mass_g
   <fct>   <fct>              <dbl>         <dbl>             <int>       <int>
 1 Adelie  Torgersen           39.1          18.7               181        3750
 2 Adelie  Torgersen           39.5          17.4               186        3800
 3 Adelie  Torgersen           40.3          18                 195        3250
 4 Adelie  Torgersen           NA            NA                  NA          NA
 5 Adelie  Torgersen           36.7          19.3               193        3450
 6 Adelie  Torgersen           39.3          20.6               190        3650
 7 Adelie  Torgersen           38.9          17.8               181        3625
 8 Adelie  Torgersen           39.2          19.6               195        4675
 9 Adelie  Torgersen           34.1          18.1               193        3475
10 Adelie  Torgersen           42            20.2               190        4250
# ℹ 334 more rows
# ℹ 4 more variables: sex <fct>, year <int>, bill_ratio <dbl>, study_year <chr>

Starting with penguins, only keep observations for chinstrap penguins, then only keep the flipper_length_mm and body_mass_g variables. Add a new column called fm_ratio that contains the ratio of flipper length to body mass for each penguin. Next, add another column named ratio_bin which contains the word “high” if fm_ratio is greater than or equal to 0.05, “low” if the ratio is less than 0.05, and “no record” if anything else (e.g. NA).

penguins %>% 
  filter(species == "Chinstrap") %>% 
  select(flipper_length_mm, body_mass_g) %>% 
  mutate(fm_ratio = (flipper_length_mm/body_mass_g)) %>% 
  mutate(ratio_bin = case_when(
    fm_ratio >= 0.05 ~ "high",
    fm_ratio < 0.05 ~ "low"
  ))

# A tibble: 68 × 4
   flipper_length_mm body_mass_g fm_ratio ratio_bin
               <int>       <int>    <dbl> <chr>    
 1               192        3500   0.0549 high     
 2               196        3900   0.0503 high     
 3               193        3650   0.0529 high     
 4               188        3525   0.0533 high     
 5               197        3725   0.0529 high     
 6               198        3950   0.0501 high     
 7               178        3250   0.0548 high     
 8               197        3750   0.0525 high     
 9               195        4150   0.0470 low      
10               198        3700   0.0535 high     
# ℹ 58 more rows
…
